Reproducible Research: Peer Assessment 1
…
Calculate and report the mean and median of the total number of steps taken per day

activity_data %>%
  group_by(date) %>%
  summarise(
    sum = sum(steps, na.rm = T), 
    mean = mean(steps, na.rm = T), 
    median = median(steps, na.rm = T)) -> mean_med

## `summarise()` ungrouping output (override with `.groups` argument)

mean_med

## # A tibble: 61 x 4
##    date         sum    mean median
##    <date>     <dbl>   <dbl>  <dbl>
##  1 2012-10-01     0 NaN         NA
##  2 2012-10-02   126   0.438      0
##  3 2012-10-03 11352  39.4        0
##  4 2012-10-04 12116  42.1        0
##  5 2012-10-05 13294  46.2        0
##  6 2012-10-06 15420  53.5        0
##  7 2012-10-07 11015  38.2        0
##  8 2012-10-08     0 NaN         NA
##  9 2012-10-09 12811  44.5        0
## 10 2012-10-10  9900  34.4        0
## #  with 51 more rows
…
imputed_dataset %>%
  group_by(date) %>%
  summarise(
    sum = sum(step_imp, na.rm = T), 
    mean = mean(step_imp, na.rm = T), 
    median = median(step_imp, na.rm = T)) %>%
#%T>% head(3) %>%
    {.} -> mean_med_imp

## `summarise()` ungrouping output (override with `.groups` argument)

mean_med_imp

## # A tibble: 61 x 4
##    date          sum   mean median
##    <date>      <dbl>  <dbl>  <dbl>
##  1 2012-10-01 10766. 37.4     34.1
##  2 2012-10-02   126   0.438    0  
##  3 2012-10-03 11352  39.4      0  
##  4 2012-10-04 12116  42.1      0  
##  5 2012-10-05 13294  46.2      0  
##  6 2012-10-06 15420  53.5      0  
##  7 2012-10-07 11015  38.2      0  
##  8 2012-10-08 10766. 37.4     34.1
##  9 2012-10-09 12811  44.5      0  
## 10 2012-10-10  9900  34.4      0  
## #  with 51 more rows
…
